\relax 
\citation{colin2011gps}
\citation{Giros}
\newlabel{usepackage}{{}{}}
\newlabel{sec:titulo}{{}{}}
\newlabel{sec:resumen}{{}{}}
\@writefile{toc}{\contentsline {section}{\numberline {I}Introducci\'on}{}{}\protected@file@percent }
\newlabel{sec:introduccion}{{I}{}}
\@writefile{toc}{\contentsline {section}{\numberline {II}Marco Te\'orico}{}{}\protected@file@percent }
\newlabel{sec:marcoteorico}{{II}{}}
\@writefile{lof}{\contentsline {figure}{\numberline {1}{\ignorespaces Diagrama de bloques con bucle de tensi\'on. Autor\IeC {\'\i }a [1]}}{}{}\protected@file@percent }
\newlabel{fig:ECCI1}{{1}{}}
\@writefile{lof}{\contentsline {figure}{\numberline {2}{\ignorespaces Conexion de IMU y Stm32. Autor\IeC {\'\i }a propia}}{}{}\protected@file@percent }
\newlabel{fig:ECCI2}{{2}{}}
\@writefile{lof}{\contentsline {figure}{\numberline {3}{\ignorespaces Cableado conexi\'on de IMU y Stm32. Autor\IeC {\'\i }a propia.}}{}{}\protected@file@percent }
\newlabel{fig:ECCI2}{{3}{}}
\@writefile{lof}{\contentsline {figure}{\numberline {4}{\ignorespaces Resultados obtenidos del aceler\'ometro. Autor\IeC {\'\i }a propia.}}{}{}\protected@file@percent }
\newlabel{fig:ECCI2}{{4}{}}
\@writefile{lof}{\contentsline {figure}{\numberline {5}{\ignorespaces Resultados obtenidos del giroscopio. Autoria propia.}}{}{}\protected@file@percent }
\newlabel{fig:ECCI2}{{5}{}}
\@writefile{lof}{\contentsline {figure}{\numberline {6}{\ignorespaces Formateado de la sd card. Autoria propia.}}{}{}\protected@file@percent }
\newlabel{fig:ECCI2}{{6}{}}
\@writefile{lof}{\contentsline {figure}{\numberline {7}{\ignorespaces Raspberry pi imager. Autor\IeC {\'\i }a propia.}}{}{}\protected@file@percent }
\newlabel{fig:ECCI2}{{7}{}}
\@writefile{lof}{\contentsline {figure}{\numberline {8}{\ignorespaces VNC connect. Autor\IeC {\'\i }a Propia.}}{}{}\protected@file@percent }
\newlabel{fig:ECCI2}{{8}{}}
\@writefile{lof}{\contentsline {figure}{\numberline {9}{\ignorespaces Resultados obtenidos por python. Autor\IeC {\'\i }a propia.}}{}{}\protected@file@percent }
\newlabel{fig:ECCI2}{{9}{}}
\@writefile{lof}{\contentsline {figure}{\numberline {10}{\ignorespaces Resultados del giroscopio por python. Autor\IeC {\'\i }a propia.}}{}{}\protected@file@percent }
\newlabel{fig:ECCI2}{{10}{}}
\@writefile{toc}{\contentsline {section}{\numberline {III}Resultados}{}{}\protected@file@percent }
\newlabel{sec:resultados}{{III}{}}
\@writefile{lof}{\contentsline {figure}{\numberline {11}{\ignorespaces Diagrama de flujo del proceso. Autor\IeC {\'\i }a propia.}}{}{}\protected@file@percent }
\newlabel{fig:ECCI2}{{11}{}}
\@writefile{toc}{\contentsline {section}{\numberline {IV}Conclusiones}{}{}\protected@file@percent }
\newlabel{sec:Conclusiones}{{IV}{}}
\bibstyle{IEEEtran}
\bibdata{bibfile}
\@writefile{toc}{\contentsline {section}{\numberline {V}Referencias}{}{}\protected@file@percent }
\newlabel{sec:Referencias}{{V}{}}
\gdef \@abspage@last{5}
